<svg width="349" height="140" viewBox="0 0 349 140" fill="none" xmlns="http://www.w3.org/2000/svg">

<style>
.mo1{animation:bounce 5s ease 0.2s infinite;}
.mo2{animation:bounce 5s ease 0.3s infinite;}
.mo3{animation:bounce 5s ease 0.4s infinite;}

@keyframes bounce {
0% {transform:translate(50px, 0);opacity:0;}
10% {transform:translate(-10px, 0);opacity:1;}
20%, 100% {transform:translate(0, 0);opacity:1;}
}
</style>

<g id="Layer_1" clip-path="url(#clip0_6_15)">

<g>
<path d="M70 139C31.95 139 1 108.05 1 70C1 31.95 31.95 1 70 1H278.9C316.95 1 347.9 31.95 347.9 70C347.9 108.05 316.95 139 278.9 139H70Z"/>
<path d="M278.9 2C296.99 2 314.04 9.09 326.92 21.98C339.8 34.87 346.9 51.92 346.9 70C346.9 88.08 339.81 105.14 326.92 118.02C314.04 130.9 296.98 138 278.9 138H70C51.91 138 34.86 130.91 21.98 118.02C9.1 105.13 2 88.09 2 70C2 51.91 9.09 34.86 21.98 21.98C34.86 9.09 51.91 2 70 2H278.9ZM278.9 0H70C31.5 0 0 31.5 0 70C0 108.5 31.5 140 70 140H278.9C317.4 140 348.9 108.5 348.9 70C348.9 31.5 317.4 0 278.9 0Z" fill="#BFBFBF"/>
</g>

<path class="mo2" d="M212.85 91.65H183.6L177.77 104.93C176.37 108.17 173.56 109.68 170.86 109.68C167.19 109.68 163.84 106.87 163.84 102.66C163.84 101.58 164.06 100.39 164.6 99.31L191.37 38.53C192.99 34.75 195.47 33.78 198.39 33.78C201.31 33.78 203.57 34.75 205.19 38.53L231.96 99.31C232.39 100.39 232.61 101.58 232.61 102.66C232.61 106.87 229.37 109.68 225.59 109.68C222.89 109.68 220.08 108.17 218.68 104.93L212.85 91.65ZM189.32 78.59H207.13L198.28 58.08L189.32 78.59Z" fill="#565656"/>
<path class="mo3" d="M255.17 42.47C254.99 54.53 237.39 53.96 238 42.47C237.52 31.64 254.85 31.09 255.17 42.47Z" fill="url(#paint0_linear_6_15)"/>
<path class="mo3" d="M253.77 102.65C254.81 111.96 239.12 111.96 240.17 102.65V66.43C240.17 61.53 242.33 59.19 246.86 59.19C251.39 59.19 253.77 61.53 253.77 66.43V102.65Z" fill="#565656"/>

<g class="mo1">
<path id="Vector_6" d="M108.94 51.5L109.78 42.02C110.14 37.71 110.39 34.68 110.43 34.04C110.45 33.68 110.43 33.32 110.35 32.99C110.15 32.12 109.54 31.57 109.54 31.57C108.81 30.84 107.08 29.78 103.39 30.47C103.26 30.49 101.86 30.77 100.64 31.5C100.22 31.76 99.23 32.42 98.72 33.31C98.41 33.88 97.86 35.17 97.66 37.4L96.87 50.94L96.2 61.76C96.2 61.76 95.75 68.58 95.58 70.55C95.26 74.23 94.87 78.97 94.48 84.01C94.48 84.01 85.03 84.45 83.56 84.52C82.87 84.56 79.21 84.88 79.17 87.12C79.17 87.25 79.17 87.38 79.2 87.53C79.39 89.12 80.15 90.21 81.12 90.96C81.35 91.13 81.68 91.34 81.76 91.39C84.16 92.84 87.59 92.78 87.59 92.78C87.59 92.78 89.99 92.78 93.87 92.78L92.96 105.94C92.91 106.86 92.86 107.73 92.81 108.56C92.74 109.91 92.7 111.41 93.19 112.28C93.57 112.95 94.17 113.05 94.73 113.12C97 113.39 99.55 113.5 101.51 110.66C103.28 108.1 103.88 105.19 104.4 101.37C104.52 100.5 104.75 98.47 104.99 96.21L107.67 65.77C108.07 62.38 110.54 61.89 111.49 61.83C111.49 61.83 111.8 61.82 112.2 61.83L108.93 51.52L108.94 51.5Z" fill="#80C342"/>
<path id="Vector_7" d="M152.4 53.51C150.97 53.44 147.1 53.26 141.93 53.02L143 37.55C143.05 36.63 143.1 35.76 143.14 34.93C143.21 33.58 143.25 32.08 142.76 31.21C142.38 30.54 141.78 30.44 141.22 30.37C138.95 30.1 136.4 29.99 134.44 32.83C132.67 35.39 132.07 38.3 131.55 42.12C131.43 42.99 131.2 45.02 130.96 47.28L130.5 52.49C112.8 51.67 90.61 50.65 87.52 50.52C87.52 50.52 85.74 50.47 84.64 50.58C81.45 51.03 80.14 52.75 79.6 54.07C79.6 54.1 79.03 55.8 79.19 57.8C79.19 57.8 79.29 59.27 79.81 60.06C80.3 60.74 81.37 61.67 83.65 61.76C83.87 61.76 95.8 61.76 109.35 61.76C109.35 61.76 116.95 61.87 117.08 61.88C117.08 61.88 130.11 61.82 130.2 72.09C130.2 72.09 130.52 80.06 121.66 82.35C121.66 82.35 120.23 82.8 117.83 82.92L126.94 92.76L126.17 101.46C125.81 105.77 125.56 108.8 125.52 109.44C125.5 109.8 125.52 110.16 125.6 110.49C125.8 111.36 126.41 111.91 126.41 111.91C127.14 112.64 128.87 113.7 132.56 113.01C132.69 112.99 134.09 112.71 135.31 111.98C135.73 111.72 136.72 111.06 137.23 110.17C137.54 109.6 138.09 108.31 138.29 106.08L139.07 92.77L139.75 81.72C139.98 78.09 140.2 74.91 140.37 72.93C140.64 69.82 140.96 65.94 141.29 61.76H148.36C148.36 61.76 151.79 61.82 154.19 60.37C154.27 60.32 154.6 60.11 154.83 59.94C155.8 59.19 156.56 58.1 156.75 56.51C156.77 56.36 156.78 56.23 156.78 56.1C156.73 53.86 153.08 53.54 152.39 53.5L152.4 53.51Z" fill="#009333"/>
<path id="Vector_8" d="M156.35 85.08C155.81 83.75 154.51 82.03 151.31 81.59C150.21 81.48 148.43 81.53 148.43 81.53C147.39 81.57 144.19 81.72 139.73 81.92C133.91 82.19 117.83 82.93 117.83 82.93C116.48 83.01 115.23 82.97 114.9 83C113.86 83.05 111.55 83.41 111.36 85.65C111.18 87.78 110.74 92.78 110.74 92.78C110.74 92.78 135.21 92.78 139.07 92.78C146.35 92.78 152.18 92.78 152.3 92.78C154.57 92.69 155.65 91.76 156.14 91.08C156.65 90.29 156.76 88.82 156.76 88.82C156.92 86.82 156.36 85.12 156.35 85.09V85.08Z" fill="#80C342"/>
</g>

</g>

<defs>
<linearGradient id="paint0_linear_6_15" x1="237.99" y1="42.72" x2="255.17" y2="42.72" gradientUnits="userSpaceOnUse">
<stop offset="0.43" stop-color="#75B722"/>
<stop offset="0.57" stop-color="#69A822"/>
<stop offset="0.7" stop-color="#65A322"/>
</linearGradient>
<clipPath id="clip0_6_15">
<rect width="348.9" height="140" fill="white"/>
</clipPath>
</defs>
</svg>
