<svg viewBox="0 0 140 40" fill="none" xmlns="http://www.w3.org/2000/svg">

<style>
/* .mo1{stroke:#DDDDDD;stroke-width:2;stroke-linecap:round;stroke-linejoin:round;animation:border_ani 5s ease-in-out 0s infinite both;} */
.mo2{fill:#80C342;animation:bounce_ani 1s ease-in-out 0s infinite both;}
.mo3{fill:#80C342;animation:bounce_ani 1s ease-in-out 0.5s infinite both;}
.mo10{animation:bounce_ani 5s 0.5s infinite both;}
.mo11{animation:bounce_ani 5s 0.8s infinite both;}
.mo12{animation:bounce_ani 5s 1.1s infinite both;}
.mo13{animation:bounce_ani 5s 1.4s infinite both;}
.mo14{animation:bounce_ani 5s 1.7s infinite both;}
.mo15{animation:bounce_ani 5s 2s infinite both;}
.mo16{animation:bounce_ani 5s 2.3s infinite both;}
.mo17{animation:bounce_ani 5s 2.6s infinite both;}

@keyframes border_ani {
0%, 100% {stroke:#ddd;}
50% {stroke:#fff;}
}
@keyframes bounce_ani {
0%, 15% ,100% {transform:translate(0, 0);}
10% {transform:translate(0, -4px)}
}
</style>

<rect x="1" y="1" width="138" height="38" rx="19" stroke="#DDDDDD" stroke-width="2" class="mo1"/>

<path d="M26.364 29.392L33.28 10.716C33.644 10.576 34.288 10.436 34.792 10.436C35.688 10.436 36.248 10.772 36.556 11.584L42.94 29.392H41.008C40.448 29.392 40.168 29.364 39.972 28.804L37.928 22.812H31.376L29.248 28.804C29.052 29.364 28.772 29.392 28.212 29.392H26.364ZM34.736 13.348L32.076 20.824H37.256L34.736 13.348Z" fill="#222222" class="mo10"/>
<path d="M43.8686 28.636V16.064H46.0526C46.5566 16.064 46.5566 16.092 46.5566 16.596V29.336C45.9126 29.588 44.9886 29.756 44.5126 29.56C44.1486 29.42 43.8686 29.112 43.8686 28.636Z" fill="#222222" class="mo11"/>
<path d="M49.1065 13.324C49.1065 12.372 49.8905 11.588 50.8425 11.588C51.7945 11.588 52.6345 12.372 52.6345 13.576C52.6345 15.48 51.9624 16.992 50.0304 17.552C49.7504 17.636 49.4145 17.58 49.2745 17.328C49.1345 17.048 49.1625 16.74 49.1625 16.74C50.3945 16.572 51.0385 16.04 51.2065 15.004C51.0945 15.032 50.9825 15.06 50.8425 15.06C49.7505 15.06 49.1065 14.444 49.1065 13.324Z" fill="#222222" class="mo12"/>
<path d="M52.7748 27.6C52.8588 27.32 53.1108 26.844 53.4748 26.312C54.6228 27.04 56.1348 27.712 57.5348 27.712C59.1868 27.712 60.0548 26.984 60.0548 25.724C60.0548 24.436 58.9908 23.988 57.3668 23.344C55.0708 22.42 53.1388 21.664 53.1388 19.48C53.1388 17.24 55.1268 15.868 58.0388 15.868C59.5788 15.868 60.8948 16.372 61.5948 16.876C62.0988 17.24 62.0708 17.52 62.0428 17.688C61.9868 17.996 61.7348 18.556 61.3988 19.088C60.3348 18.248 59.1028 17.828 58.0388 17.828C56.6108 17.828 55.8828 18.444 55.8828 19.396C55.8828 20.46 56.7788 20.768 58.4588 21.412C60.4188 22.14 62.7988 22.896 62.7988 25.556C62.7988 28.216 60.7828 29.7 57.5348 29.7C55.6028 29.7 54.0348 29.056 53.1108 28.384C52.7748 28.132 52.7188 27.796 52.7748 27.6Z" fill="#222222" class="mo13"/>
<path d="M70.6683 28.636V10.968C72.1803 10.66 73.8883 10.492 75.2323 10.436C79.8803 10.324 82.7923 12.2 82.7923 16.176C82.7923 19.816 80.2163 21.832 75.2323 21.692C74.5883 21.692 73.9723 21.636 73.3563 21.58V29.336C72.7123 29.588 71.7883 29.756 71.3123 29.56C70.9483 29.42 70.6683 29.112 70.6683 28.636ZM73.3563 12.536V19.704C73.6923 19.732 74.0283 19.732 74.3363 19.732C77.8643 19.732 79.9923 18.976 79.9923 16.26C79.9923 13.572 78.4803 12.424 75.4283 12.424C74.5883 12.424 73.9443 12.452 73.3563 12.536Z" fill="#222222" class="mo14"/>
<path d="M84.4194 28.636V16.064H86.6034C87.1074 16.064 87.1074 16.092 87.1074 16.596V29.336C86.4634 29.588 85.5394 29.756 85.0634 29.56C84.6994 29.42 84.4194 29.112 84.4194 28.636Z" fill="#222222" class="mo15"/>
<path d="M95.0412 27.712C96.2732 27.712 97.6732 27.152 98.7372 26.256C99.1572 26.816 99.4372 27.376 99.4932 27.656C99.5212 27.796 99.4652 28.104 99.2412 28.328C98.4292 29.084 96.8052 29.7 95.0412 29.7C91.2052 29.7 88.4332 26.844 88.4332 22.728C88.4332 18.612 91.1492 15.868 95.0412 15.868C96.6652 15.868 97.9252 16.484 98.5972 16.96C99.1012 17.296 99.1012 17.716 99.0732 17.884C99.0172 18.136 98.6532 18.724 98.3452 19.256C97.3092 18.388 96.1332 17.828 95.0412 17.828C92.6892 17.828 91.1772 19.788 91.1772 22.728C91.1772 25.668 92.6892 27.712 95.0412 27.712Z" fill="#222222" class="mo16"/>

<path d="M100.559 28.636V10.604H102.743C103.247 10.604 103.247 10.632 103.247 11.136V21.86L108.903 16.064H111.339C111.759 16.064 111.899 16.344 111.675 16.596L106.495 21.944L112.571 29.476H109.939C109.519 29.476 109.183 29.392 108.819 28.888L104.731 23.736L103.247 25.304V29.336C102.603 29.588 101.679 29.756 101.203 29.56C100.839 29.42 100.559 29.112 100.559 28.636Z" fill="#222222" class="mo17"/>

<circle cx="45" cy="10" r="3" fill="#80C342" class="mo11"/>
<circle cx="86" cy="10" r="3" fill="#80C342" class="mo15"/>
</svg>
