<svg width="48" height="48" viewBox="0 0 48 48" fill="none" xmlns="http://www.w3.org/2000/svg">
<g clip-path="url(#clip0_1_52)">
<circle cx="24" cy="24" r="24" fill="#7bcc12"/>
<path d="M18.1028 34.0442C17.5728 34.0442 17.0628 33.8342 16.6928 33.4542L10.6928 27.4542C9.92285 26.6642 9.94285 25.3942 10.7428 24.6242C11.5228 23.8742 12.7428 23.8742 13.5228 24.6242L18.1128 29.2142L32.7028 14.6242C33.4728 13.8342 34.7328 13.8042 35.5328 14.5742C36.3328 15.3442 36.3528 16.6042 35.5828 17.4042C35.5628 17.4242 35.5528 17.4342 35.5328 17.4542L19.5328 33.4542C19.1628 33.8342 18.6528 34.0442 18.1228 34.0442" fill="white"/>
</g>
<defs>
<clipPath id="clip0_1_52">
<rect width="48" height="48" fill="white" transform="translate(0.102844 0.0441895)"/>
</clipPath>
</defs>
</svg>
