<svg xmlns="http://www.w3.org/2000/svg" width="12.373" height="13.449" viewBox="0 0 12.373 13.449">
    <path fill="#366aff" d="M1142.521 1016.91l-8.8-.872s-1.635-10.105-3.573-11.275c9.823-1.339 10.548-1.3 10.548-1.3s1.752 12.103 1.825 13.447z" transform="translate(-1130.148 -1003.461)"/>
</svg>
